^C:\DOCUMENTS AND SETTINGS\FAUST\РАБОЧИЙ СТОЛ\ЧМЧВА\ЧМЧВА\DEBUG\.NETFRAMEWORK,VERSION=V4.0.ASSEMBLYATTRIBUTES.OBJ|C:\DOCUMENTS AND SETTINGS\FAUST\РАБОЧИЙ СТОЛ\ЧМЧВА\ЧМЧВА\DEBUG\APP.RES|C:\DOCUMENTS AND SETTINGS\FAUST\РАБОЧИЙ СТОЛ\ЧМЧВА\ЧМЧВА\DEBUG\ASSEMBLYINFO.OBJ|C:\DOCUMENTS AND SETTINGS\FAUST\РАБОЧИЙ СТОЛ\ЧМЧВА\ЧМЧВА\DEBUG\STDAFX.OBJ|C:\DOCUMENTS AND SETTINGS\FAUST\РАБОЧИЙ СТОЛ\ЧМЧВА\ЧМЧВА\DEBUG\ЧМЧВА.OBJ
C:\DOCUMENTS AND SETTINGS\FAUST\Рабочий стол\чмчва\DEBUG\MD5_HASH.ILK
C:\DOCUMENTS AND SETTINGS\FAUST\Рабочий стол\чмчва\DEBUG\MD5_HASH.EXE
C:\DOCUMENTS AND SETTINGS\FAUST\Рабочий стол\чмчва\чмчва\DEBUG\MD5_HASH.EXE.INTERMEDIATE.MANIFEST
C:\DOCUMENTS AND SETTINGS\FAUST\РАБОЧИЙ СТОЛ\ЧМЧВА\DEBUG\MD5_HASH.PDB
^C:\DOCUMENTS AND SETTINGS\FAUST\РАБОЧИЙ СТОЛ\ГОТОВЫЙ КУРСАЧ\ЧМЧВА\ЧМЧВА\DEBUG\.NETFRAMEWORK,VERSION=V4.0.ASSEMBLYATTRIBUTES.OBJ|C:\DOCUMENTS AND SETTINGS\FAUST\РАБОЧИЙ СТОЛ\ГОТОВЫЙ КУРСАЧ\ЧМЧВА\ЧМЧВА\DEBUG\APP.RES|C:\DOCUMENTS AND SETTINGS\FAUST\РАБОЧИЙ СТОЛ\ГОТОВЫЙ КУРСАЧ\ЧМЧВА\ЧМЧВА\DEBUG\ASSEMBLYINFO.OBJ|C:\DOCUMENTS AND SETTINGS\FAUST\РАБОЧИЙ СТОЛ\ГОТОВЫЙ КУРСАЧ\ЧМЧВА\ЧМЧВА\DEBUG\STDAFX.OBJ|C:\DOCUMENTS AND SETTINGS\FAUST\РАБОЧИЙ СТОЛ\ГОТОВЫЙ КУРСАЧ\ЧМЧВА\ЧМЧВА\DEBUG\ЧМЧВА.OBJ
C:\DOCUMENTS AND SETTINGS\FAUST\Рабочий стол\готовый курсач\чмчва\DEBUG\MD5_HASH.ILK
C:\DOCUMENTS AND SETTINGS\FAUST\Рабочий стол\готовый курсач\чмчва\DEBUG\MD5_HASH.EXE
C:\DOCUMENTS AND SETTINGS\FAUST\Рабочий стол\готовый курсач\чмчва\чмчва\DEBUG\MD5_HASH.EXE.INTERMEDIATE.MANIFEST
C:\DOCUMENTS AND SETTINGS\FAUST\РАБОЧИЙ СТОЛ\ГОТОВЫЙ КУРСАЧ\ЧМЧВА\DEBUG\MD5_HASH.PDB
