^C:\DOCUMENTS AND SETTINGS\FAUST\РАБОЧИЙ СТОЛ\ЧМЧВА\ЧМЧВА\DEBUG\ЧМЧВА.EXE.INTERMEDIATE.MANIFEST
/nologo /verbose /outputresource:"C:\Documents and Settings\FAUST\Рабочий стол\чмчва\Debug\чмчва.exe;#1" /manifest "Debug\чмчва.exe.intermediate.manifest"
^C:\DOCUMENTS AND SETTINGS\FAUST\РАБОЧИЙ СТОЛ\ЧМЧВА\ЧМЧВА\DEBUG\MD5_HASH.EXE.INTERMEDIATE.MANIFEST
/nologo /verbose /outputresource:"C:\Documents and Settings\FAUST\Рабочий стол\чмчва\Debug\md5_hash.exe;#1" /manifest Debug\md5_hash.exe.intermediate.manifest
^C:\DOCUMENTS AND SETTINGS\FAUST\РАБОЧИЙ СТОЛ\ГОТОВЫЙ КУРСАЧ\ЧМЧВА\ЧМЧВА\DEBUG\MD5_HASH.EXE.INTERMEDIATE.MANIFEST
/nologo /verbose /outputresource:"C:\Documents and Settings\FAUST\Рабочий стол\готовый курсач\чмчва\Debug\md5_hash.exe;#1" /manifest Debug\md5_hash.exe.intermediate.manifest
