^C:\DOCUMENTS AND SETTINGS\FAUST\РАБОЧИЙ СТОЛ\ЧМЧВА\ЧМЧВА\DEBUG\ЧМЧВА.EXE.INTERMEDIATE.MANIFEST
C:\WINDOWS\WINDOWSSHELL.MANIFEST
C:\WINDOWS\REGISTRATION\R000000000015.CLB
C:\WINDOWS\MICROSOFT.NET\FRAMEWORK\V2.0.50727\MSCORWKS.DLL
C:\WINDOWS\MICROSOFT.NET\FRAMEWORK\V4.0.30319\CLR.DLL
C:\PROGRAM FILES\MICROSOFT SDKS\WINDOWS\V7.0A\BIN\MT.EXE.CONFIG
C:\DOCUMENTS AND SETTINGS\FAUST\Рабочий стол\чмчва\DEBUG\чмчва.EXE
^C:\DOCUMENTS AND SETTINGS\FAUST\РАБОЧИЙ СТОЛ\ЧМЧВА\ЧМЧВА\DEBUG\MD5_HASH.EXE.INTERMEDIATE.MANIFEST
C:\WINDOWS\WINDOWSSHELL.MANIFEST
C:\WINDOWS\REGISTRATION\R000000000015.CLB
C:\WINDOWS\MICROSOFT.NET\FRAMEWORK\V2.0.50727\MSCORWKS.DLL
C:\WINDOWS\MICROSOFT.NET\FRAMEWORK\V4.0.30319\CLR.DLL
C:\PROGRAM FILES\MICROSOFT SDKS\WINDOWS\V7.0A\BIN\MT.EXE.CONFIG
C:\DOCUMENTS AND SETTINGS\FAUST\Рабочий стол\чмчва\DEBUG\MD5_HASH.EXE
^C:\DOCUMENTS AND SETTINGS\FAUST\РАБОЧИЙ СТОЛ\ГОТОВЫЙ КУРСАЧ\ЧМЧВА\ЧМЧВА\DEBUG\MD5_HASH.EXE.INTERMEDIATE.MANIFEST
C:\WINDOWS\WINDOWSSHELL.MANIFEST
C:\WINDOWS\REGISTRATION\R000000000015.CLB
C:\WINDOWS\MICROSOFT.NET\FRAMEWORK\V2.0.50727\MSCORWKS.DLL
C:\WINDOWS\MICROSOFT.NET\FRAMEWORK\V4.0.30319\CLR.DLL
C:\PROGRAM FILES\MICROSOFT SDKS\WINDOWS\V7.0A\BIN\MT.EXE.CONFIG
C:\DOCUMENTS AND SETTINGS\FAUST\Рабочий стол\готовый курсач\чмчва\DEBUG\MD5_HASH.EXE
