^C:\DOCUMENTS AND SETTINGS\FAUST\РАБОЧИЙ СТОЛ\ЧМЧВА\ЧМЧВА\APP.RC
C:\DOCUMENTS AND SETTINGS\FAUST\Рабочий стол\чмчва\чмчва\DEBUG\APP.RES
^C:\DOCUMENTS AND SETTINGS\FAUST\РАБОЧИЙ СТОЛ\ГОТОВЫЙ КУРСАЧ\ЧМЧВА\ЧМЧВА\APP.RC
C:\DOCUMENTS AND SETTINGS\FAUST\Рабочий стол\готовый курсач\чмчва\чмчва\DEBUG\APP.RES
