#Command: "C:\Program Files (x86)\Common Files\Intel\Intel Software Manager\intelremotemonserver.exe"
^C:\USERS\АНТОН\DESKTOP\KURSOVAIA\KURSOVAIA\STDAFX.CPP
C:\WINDOWS\GLOBALIZATION\SORTING\SORTDEFAULT.NLS
#Command: "C:\Program Files (x86)\Common Files\Intel\Intel Software Manager\intelremotemonserver.exe"
^C:\USERS\АНТОН\DESKTOP\КУРСОВАЯ ОРГ.ЭВМ\KURSOVAIA\KURSOVAIA\STDAFX.CPP
C:\WINDOWS\GLOBALIZATION\SORTING\SORTDEFAULT.NLS
