^C:\USERS\АНТОН\DESKTOP\TRASH\TRASH\DEBUG\STDAFX.OBJ|C:\USERS\АНТОН\DESKTOP\TRASH\TRASH\DEBUG\TRASH.OBJ
C:\USERS\Антон\DESKTOP\TRASH\DEBUG\TRASH.ILK
C:\USERS\Антон\DESKTOP\TRASH\DEBUG\TRASH.EXE
C:\USERS\АНТОН\DESKTOP\TRASH\DEBUG\TRASH.PDB
