#Command: "C:\Program Files (x86)\Common Files\Intel\Intel Software Manager\intelremotemonserver.exe"
^C:\USERS\АНТОН\DESKTOP\TESTS\TESTS\TESTS.CPP
C:\WINDOWS\GLOBALIZATION\SORTING\SORTDEFAULT.NLS
#Command: "C:\Program Files (x86)\Common Files\Intel\Intel Software Manager\intelremotemonserver.exe"
^C:\USERS\АНТОН\DESKTOP\TESTS\TESTS\TESTS.CPP
C:\WINDOWS\GLOBALIZATION\SORTING\SORTDEFAULT.NLS
#Command: "C:\Program Files (x86)\Common Files\Intel\Intel Software Manager\intelremotemonserver.exe"
^C:\USERS\АНТОН\DESKTOP\TESTS\TESTS\TESTS.CPP
C:\WINDOWS\GLOBALIZATION\SORTING\SORTDEFAULT.NLS
#Command: "C:\Program Files (x86)\Common Files\Intel\Intel Software Manager\intelremotemonserver.exe"
^C:\USERS\АНТОН\DESKTOP\TESTS\TESTS\TESTS.CPP
C:\WINDOWS\GLOBALIZATION\SORTING\SORTDEFAULT.NLS
#Command: "C:\Program Files (x86)\Common Files\Intel\Intel Software Manager\intelremotemonserver.exe"
^C:\USERS\АНТОН\DESKTOP\TESTS\TESTS\TESTS.CPP
C:\WINDOWS\GLOBALIZATION\SORTING\SORTDEFAULT.NLS
#Command: "C:\Program Files (x86)\Common Files\Intel\Intel Software Manager\intelremotemonserver.exe"
^C:\USERS\АНТОН\DESKTOP\TESTS\TESTS\TESTS.CPP
C:\WINDOWS\GLOBALIZATION\SORTING\SORTDEFAULT.NLS
#Command: "C:\Program Files (x86)\Common Files\Intel\Intel Software Manager\intelremotemonserver.exe"
^C:\USERS\АНТОН\DESKTOP\TESTS\TESTS\TESTS.CPP
C:\WINDOWS\GLOBALIZATION\SORTING\SORTDEFAULT.NLS
#Command: "C:\Program Files (x86)\Common Files\Intel\Intel Software Manager\intelremotemonserver.exe"
^C:\USERS\АНТОН\DESKTOP\TESTS\TESTS\TESTS.CPP
C:\WINDOWS\GLOBALIZATION\SORTING\SORTDEFAULT.NLS
#Command: "C:\Program Files (x86)\Common Files\Intel\Intel Software Manager\intelremotemonserver.exe"
^C:\USERS\АНТОН\DESKTOP\TESTS\TESTS\TESTS.CPP
C:\WINDOWS\GLOBALIZATION\SORTING\SORTDEFAULT.NLS
#Command: "C:\Program Files (x86)\Common Files\Intel\Intel Software Manager\intelremotemonserver.exe"
^C:\USERS\АНТОН\DESKTOP\TESTS\TESTS\TESTS.CPP
C:\WINDOWS\GLOBALIZATION\SORTING\SORTDEFAULT.NLS
