#Command: "C:\Program Files (x86)\Common Files\Intel\Intel Software Manager\intelremotemonserver.exe"
^C:\USERS\АНТОН\DESKTOP\TESTS\TESTS\TESTS.CPP
C:\PROGRAM FILES (X86)\COMMON FILES\INTEL\INTEL SOFTWARE MANAGER\INTELREMOTEMONAGENT.EXE
