^C:\USERS\АНТОН\DESKTOP\TESTS\TESTS\STDAFX.CPP
C:\USERS\Антон\DESKTOP\TESTS\TESTS\RELEASE\TESTS.PCHI
C:\USERS\Антон\DESKTOP\TESTS\TESTS\RELEASE\STDAFX.OBJ
^C:\USERS\АНТОН\DESKTOP\TESTS\TESTS\TESTS.CPP
C:\USERS\Антон\DESKTOP\TESTS\TESTS\RELEASE\TESTS.OBJ
