^C:\USERS\АНТОН\DESKTOP\TESTS\TESTS\RELEASE\STDAFX.OBJ|C:\USERS\АНТОН\DESKTOP\TESTS\TESTS\RELEASE\TESTS.OBJ
C:\USERS\Антон\DESKTOP\TESTS\RELEASE\TESTS.EXE
C:\USERS\АНТОН\DESKTOP\TESTS\RELEASE\TESTS.PDB
