^C:\USERS\АНТОН\DESKTOP\TRASH\TRASH\STDAFX.CPP
C:\USERS\Антон\DESKTOP\TRASH\TRASH\RELEASE\TRASH.PCH
C:\USERS\Антон\DESKTOP\TRASH\TRASH\RELEASE\STDAFX.OBJ
C:\USERS\АНТОН\DESKTOP\TRASH\TRASH\RELEASE\VC110.PDB
^C:\USERS\АНТОН\DESKTOP\TRASH\TRASH\TRASH.CPP
C:\USERS\Антон\DESKTOP\TRASH\TRASH\RELEASE\TRASH.OBJ
C:\USERS\АНТОН\DESKTOP\TRASH\TRASH\RELEASE\VC110.PDB
