^C:\USERS\АНТОН\DESKTOP\TRASH\TRASH\RELEASE\STDAFX.OBJ|C:\USERS\АНТОН\DESKTOP\TRASH\TRASH\RELEASE\TRASH.OBJ
C:\USERS\Антон\DESKTOP\TRASH\RELEASE\TRASH.EXE
C:\USERS\Антон\DESKTOP\TRASH\TRASH\RELEASE\TRASH.EXE.INTERMEDIATE.MANIFEST
