^C:\USERS\АНТОН\DESKTOP\TESTS\TESTS\STDAFX.CPP
C:\USERS\Антон\DESKTOP\TESTS\TESTS\DEBUG\TESTS.PCH
C:\USERS\Антон\DESKTOP\TESTS\TESTS\DEBUG\STDAFX.OBJ
C:\USERS\АНТОН\DESKTOP\TESTS\TESTS\DEBUG\VC110.PDB
^C:\USERS\АНТОН\DESKTOP\TESTS\TESTS\TESTS.CPP
C:\USERS\Антон\DESKTOP\TESTS\TESTS\DEBUG\TESTS.OBJ
C:\USERS\АНТОН\DESKTOP\TESTS\TESTS\DEBUG\VC110.PDB
