^C:\USERS\АНТОН\DESKTOP\TESTS\TESTS\DEBUG\STDAFX.OBJ|C:\USERS\АНТОН\DESKTOP\TESTS\TESTS\DEBUG\TESTS.OBJ
C:\USERS\Антон\DESKTOP\TESTS\DEBUG\TESTS.ILK
C:\USERS\Антон\DESKTOP\TESTS\DEBUG\TESTS.EXE
C:\USERS\Антон\DESKTOP\TESTS\TESTS\DEBUG\TESTS.EXE.INTERMEDIATE.MANIFEST
